Get cell number, row and column from a SpatRaster — as_coordinates • tidyterra
…
    Examples

library(terra)

f <- system.file("extdata/cyl_temp.tif", package = "tidyterra")

r <- rast(f)

as_coordinates(r)
#> # A tibble: 10,266 × 3
#>    cellindex rowindex colindex
#>        <int>    <dbl>    <dbl>
#>  1         1        1        1
#>  2         2        1        2
#>  3         3        1        3
#>  4         4        1        4
#>  5         5        1        5
#>  6         6        1        6
#>  7         7        1        7
#>  8         8        1        8
#>  9         9        1        9
#> 10        10        1       10
#> # ℹ 10,256 more rows
…
