…
# Create tibble
as_tbl <- as_tibble(r, xy = TRUE)

as_tbl
#> # A tibble: 90 × 3
#>        x     y lyr.1
#>    <dbl> <dbl> <int>
#>  1   0.5  29.5     1
#>  2   1.5  29.5    31
#>  3   2.5  29.5    61
#>  4   0.5  28.5     2
#>  5   1.5  28.5    32
#>  6   2.5  28.5    62
#>  7   0.5  27.5     3
#>  8   1.5  27.5    33
#>  9   2.5  27.5    63
#> 10   0.5  26.5     4
#> # ℹ 80 more rows
…
