Method for coercing objects to SpatVector — as_spatvector • tidyterra
…
# Create tibble
as_tbl <- as_tibble(v, geom = "WKT")

as_tbl
#> # A tibble: 40 × 2
#>    cat   geometry     
#>    <chr> <chr>        
#>  1 B     POINT (1 41) 
#>  2 A     POINT (2 42) 
#>  3 A     POINT (3 43) 
#>  4 A     POINT (4 44) 
#>  5 C     POINT (5 45) 
#>  6 D     POINT (6 46) 
#>  7 C     POINT (7 47) 
#>  8 A     POINT (8 48) 
#>  9 B     POINT (9 49) 
#> 10 B     POINT (10 50)
#> # ℹ 30 more rows
…
