…
# Create tibble
as_tbl <- as_tibble(v, geom = "WKT")

as_tbl
#> # A tibble: 40 × 2
#>    cat   geometry     
#>    <chr> <chr>        
#>  1 A     POINT (1 41) 
#>  2 C     POINT (2 42) 
#>  3 D     POINT (3 43) 
#>  4 C     POINT (4 44) 
#>  5 A     POINT (5 45) 
#>  6 B     POINT (6 46) 
#>  7 C     POINT (7 47) 
#>  8 C     POINT (8 48) 
#>  9 C     POINT (9 49) 
#> 10 D     POINT (10 50)
#> # ℹ 30 more rows
…
