…
## Examples

``` r
library(terra)
# SpatRaster
f <- system.file("extdata/cyl_temp.tif", package = "tidyterra")
r <- rast(f)

as_tibble(r, na.rm = TRUE)
#> # A tibble: 6,522 × 3
#>    tavg_04 tavg_05 tavg_06
#>      <dbl>   <dbl>   <dbl>
#>  1    3.18    6.79    11.1
#>  2    5.30    8.73    12.7
#>  3    4.59    8.05    12.1
#>  4    6.38    9.72    13.6
#>  5    4.05    7.58    11.8
#>  6    2.90    6.54    10.9
#>  7    5.05    8.49    12.5
#>  8    2.58    6.17    10.5
#>  9    9.30   12.5     15.4
#> 10    9.84   13.0     15.9
#> # ℹ 6,512 more rows

as_tibble(r, xy = TRUE)
#> # A tibble: 10,266 × 5
#>           x        y tavg_04 tavg_05 tavg_06
#>       <dbl>    <dbl>   <dbl>   <dbl>   <dbl>
#>  1 -610395. 4618746.      NA      NA      NA
#>  2 -606513. 4618746.      NA      NA      NA
#>  3 -602632. 4618746.      NA      NA      NA
#>  4 -598751. 4618746.      NA      NA      NA
#>  5 -594870. 4618746.      NA      NA      NA
#>  6 -590988. 4618746.      NA      NA      NA
#>  7 -587107. 4618746.      NA      NA      NA
#>  8 -583226. 4618746.      NA      NA      NA
#>  9 -579345. 4618746.      NA      NA      NA
#> 10 -575463. 4618746.      NA      NA      NA
#> # ℹ 10,256 more rows
…
