…
Other datasets:
[`grass_db`](https://dieghernan.github.io/tidyterra/reference/grass_db.md),
[`hypsometric_tints_db`](https://dieghernan.github.io/tidyterra/reference/hypsometric_tints_db.md),
[`princess_db`](https://dieghernan.github.io/tidyterra/reference/princess_db.md),
[`volcano2`](https://dieghernan.github.io/tidyterra/reference/volcano2.md)

## Examples

``` r
# \donttest{

data("cross_blended_hypsometric_tints_db")

cross_blended_hypsometric_tints_db
#> # A tibble: 41 × 6
#>    pal   limit     r     g     b hex    
#>    <chr> <int> <int> <int> <int> <chr>  
#>  1 arid      0   160   152   141 #A0988D
#>  2 arid     50   170   160   150 #AAA096
#>  3 arid    200   180   170   158 #B4AA9E
#>  4 arid    600   202   190   174 #CABEAE
#>  5 arid   1000   212   201   180 #D4C9B4
#>  6 arid   2000   212   184   163 #D4B8A3
#>  7 arid   3000   212   193   179 #D4C1B3
#>  8 arid   4000   212   207   204 #D4CFCC
#>  9 arid   5000   220   220   220 #DCDCDC
#> 10 arid   6000   235   235   237 #EBEBED
#> # ℹ 31 more rows
…
