Fortify Spat* Objects — fortify.Spat • tidyterra
…
    Examples

# \donttest{

# Get a SpatRaster
r <- system.file("extdata/volcano2.tif", package = "tidyterra") %>%
  terra::rast() %>%
  terra::project("EPSG:4326")

fortified <- ggplot2::fortify(r)

fortified
#> # A tibble: 23,166 × 3
#>        x     y elevation
#>    <dbl> <dbl>     <dbl>
#>  1  175. -36.9        NA
#>  2  175. -36.9        NA
#>  3  175. -36.9        NA
#>  4  175. -36.9        NA
#>  5  175. -36.9        NA
#>  6  175. -36.9        NA
#>  7  175. -36.9        NA
#>  8  175. -36.9        NA
#>  9  175. -36.9        NA
#> 10  175. -36.9        NA
#> # ℹ 23,156 more rows
…
