GRASS color tables — grass_db • tidyterra
…
    scale_fill_grass_c()

Other datasets:
cross_blended_hypsometric_tints_db,
hypsometric_tints_db,
princess_db,
volcano2

    Examples

# \donttest{
data("grass_db")

grass_db
#> # A tibble: 2,920 × 6
#>    pal        limit     r     g     b hex    
#>    <chr>      <dbl> <dbl> <dbl> <dbl> <chr>  
#>  1 aspect        NA     0     0     0 #000000
#>  2 aspect        NA   255   255   255 #FFFFFF
#>  3 aspect        NA     0     0     0 #000000
#>  4 aspectcolr     0   255   255   255 #FFFFFF
#>  5 aspectcolr     1   255   255     0 #FFFF00
#>  6 aspectcolr    90     0   255     0 #00FF00
#>  7 aspectcolr   180     0   255   255 #00FFFF
#>  8 aspectcolr   270   255     0     0 #FF0000
#>  9 aspectcolr   360   255   255     0 #FFFF00
#> 10 bcyr          NA     0     0   255 #0000FF
#> # ℹ 2,910 more rows
…
