…
Other datasets:
[`cross_blended_hypsometric_tints_db`](https://dieghernan.github.io/tidyterra/reference/cross_blended_hypsometric_tints_db.md),
[`grass_db`](https://dieghernan.github.io/tidyterra/reference/grass_db.md),
[`princess_db`](https://dieghernan.github.io/tidyterra/reference/princess_db.md),
[`volcano2`](https://dieghernan.github.io/tidyterra/reference/volcano2.md)

## Examples

``` r
# \donttest{
data("hypsometric_tints_db")

hypsometric_tints_db
#> # A tibble: 1,102 × 6
#>    pal    limit     r     g     b hex    
#>    <chr>  <dbl> <dbl> <dbl> <dbl> <chr>  
#>  1 arctic -5000    44    53    99 #2C3563
#>  2 arctic -4900    46    54   100 #2E3664
#>  3 arctic -4800    48    56   103 #303867
#>  4 arctic -4700    50    59   106 #323B6A
#>  5 arctic -4600    52    60   107 #343C6B
#>  6 arctic -4500    54    61   109 #363D6D
#>  7 arctic -4400    56    63   111 #383F6F
#>  8 arctic -4300    57    65   113 #394171
#>  9 arctic -4200    60    68   116 #3C4474
#> 10 arctic -4100    62    70   118 #3E4676
#> # ℹ 1,092 more rows
…
