…
Other datasets:
[`cross_blended_hypsometric_tints_db`](https://dieghernan.github.io/tidyterra/dev/reference/cross_blended_hypsometric_tints_db.md),
[`hypsometric_tints_db`](https://dieghernan.github.io/tidyterra/dev/reference/hypsometric_tints_db.md),
[`princess_db`](https://dieghernan.github.io/tidyterra/dev/reference/princess_db.md),
[`volcano2`](https://dieghernan.github.io/tidyterra/dev/reference/volcano2.md)

## Examples

``` r
# \donttest{
data("grass_db")

grass_db
#> # A tibble: 2,920 × 6
#>    pal        limit     r     g     b hex    
#>    <chr>      <dbl> <dbl> <dbl> <dbl> <chr>  
#>  1 aspect        NA     0     0     0 #000000
#>  2 aspect        NA   255   255   255 #FFFFFF
#>  3 aspect        NA     0     0     0 #000000
#>  4 aspectcolr     0   255   255   255 #FFFFFF
#>  5 aspectcolr     1   255   255     0 #FFFF00
#>  6 aspectcolr    90     0   255     0 #00FF00
#>  7 aspectcolr   180     0   255   255 #00FFFF
#>  8 aspectcolr   270   255     0     0 #FF0000
#>  9 aspectcolr   360   255   255     0 #FFFF00
#> 10 bcyr          NA     0     0   255 #0000FF
#> # ℹ 2,910 more rows
…
